<html> 
	<h2 align='center'>Решение</h2>
	<p> 
		Множество решений <b>D</b> = {d<sub>1</sub>, d<sub>2</sub>}:<br/> 
		d<sub>1</sub> – решение защищать посевы от заморозков; <br/> 
		d<sub>2</sub> – решение не защищать посевы от заморозков. <br/> <br/> 

		Погода описывается случайной величиной <b>Y</b> = {y<sub>1</sub>, y<sub>2</sub>}:<br/> 
		y<sub>1</sub> – наблюдаются заморозки;<br/>  
		y<sub>2</sub> – наблюдается устойчивая теплая погода. <br/> <br/> 

		Вероятность события y<sub>i</sub> обозначим символом p<sub>i</sub>.  
		При необходимости будем использовать также символ P<sub>Y</sub>(y<sub>i</sub>). <br/><br/> 

		Множество альтернатив <b>A</b> = {a<sub>1</sub>, a<sub>2</sub>, a<sub>3</sub>, a<sub>4</sub>}:<br/>  
		a<sub>1</sub> – наблюдаются заморозки, однако посевы защищены, в результате посевы сохранены частично, фермер получает низкий доход; <br/> 
		a<sub>2</sub> – заморозки не наблюдаются, при этом посевы защищены, в результате посевы сохранены полностью, фермер получает средний доход; <br/> 
		a<sub>3</sub> – наблюдаются заморозки, но посевы не защищены, в результате посевы погибают полностью, фермер несет большие убытки; <br/> 
		a<sub>4</sub> – заморозки не наблюдаются и посевы не защищены, в результате посевы сохранены полностью, фермер получает высокий доход.  <br/><br/>  

		Каждому из возможных исходов a<sub>i</sub> поставим в соответствие ценность исхода (альтернативы) v<sub>i</sub> = v(a<sub>i</sub>), 
		значение которой определяется получаемым <br/>доходом. Для ценностей рассмотренных альтернатив справедливо следующее соотношение: 
		v<sub>4</sub> = v4 > v<sub>2</sub> = v2 > v<sub>1</sub> = v1 > v<sub>3</sub> = v3 .<br/><br/>

		<b>Расчет полезностей решений:</b><br/> 
		Ценности исходов (альтернатив) определяются с учетом введенных обозначений как <br/>
		V(y<sub>1</sub>, d<sub>1</sub>) = V(a<sub>1</sub>) = v<sub>1</sub> = v1 ;<br/>
		V(y<sub>2</sub>, d<sub>1</sub>) = V(a<sub>2</sub>) = v<sub>2</sub> = v2 ;<br/>
		V(y<sub>1</sub>, d<sub>2</sub>) = V(a<sub>3</sub>) = v<sub>3</sub> = v3 ;<br/>
		V(y<sub>2</sub>, d<sub>2</sub>) = V(a<sub>4</sub>) = v<sub>4</sub> = v4 ;<br/><br/>

		Полезность решения d<sub>1</sub> лотереи L<sub>1</sub> равна 
			u(d<sub>1</sub>) = p<sub>1</sub>v<sub>1</sub> + p<sub>2</sub>v<sub>2</sub> = 
		    p1 &#xB7; v1 + p2 &#xB7; v2 = ud1 ;<br/> 

		Полезность решения d<sub>2</sub> лотереи L<sub>2</sub> равна 
			u(d<sub>2</sub>) = p<sub>1</sub>v<sub>3</sub> + p<sub>2</sub>v<sub>4</sub> = 
		    p1 &#xB7; v3 + p2 &#xB7; v4 = ud2 ;<br/> 

		<b>Вероятность безразличия:</b><br/> 
		Вероятность безразличия p&#772; - значение p<sub>1</sub>, при котором принятое
		решение не оказывает влияния на <br/>математическое ожидание получаемого дохода.<br/>
		p&#772;( v1 - v3 ) = (1 - p&#772;)( v4 - v2 )
		откуда p&#772; = ( v4 - v2 ) / ( v1 - v3 + v4 - v2 ) = pdef <br/><br/>

		<b>Выбор решения:</b><br/> 
		<i>Байесовский подход к выбору решения.</i><br/>
		d<sup>*</sup> = d<sub>1</sub>, если p<sub>1</sub>(v<sub>1</sub> - v<sub>3</sub>) ≥ p<sub>2</sub>(v<sub>4</sub> - v<sub>2</sub>), 
		иначе d<sup>*</sup> = d<sub>2</sub><br/> 

		С учетом вероятности безразличия Байесовское решение принимает вид: 
		d<sup>*</sup> = d<sub>1</sub>, если p1 ≥ pdef , иначе d<sup>*</sup> = d<sub>2</sub><br/> <br/> 
		<i>Осторожное решение.</i><br/>
		осторожное решение: δ<sup>*</sup> = d<sub>1</sub>. <br/>
		Полезность осторожного решения u(δ<sup>*</sup>) = p1 &#xB7; v1 + (1 - p1 ) &#xB7; v2 = ud1 <br/> <br/> 